<?xml version="1.0" encoding="UTF-8" standalone="no"?>
<svg
   xmlns:dc="http://purl.org/dc/elements/1.1/"
   xmlns:cc="http://creativecommons.org/ns#"
   xmlns:rdf="http://www.w3.org/1999/02/22-rdf-syntax-ns#"
   xmlns:svg="http://www.w3.org/2000/svg"
   xmlns="http://www.w3.org/2000/svg"
   xmlns:sodipodi="http://sodipodi.sourceforge.net/DTD/sodipodi-0.dtd"
   xmlns:inkscape="http://www.inkscape.org/namespaces/inkscape"
   sodipodi:docname="ac_sin_source.svg"
   inkscape:version="0.92.4 5da689c313, 2019-01-14"
   width="2000"
   height="1520"
   viewBox="0 0 2000 1520"
   version="1.1"
   id="svg8">
  <sodipodi:namedview
     pagecolor="#ffffff"
     bordercolor="#000000"
     borderopacity="1"
     objecttolerance="5"
     gridtolerance="10"
     guidetolerance="5"
     inkscape:pageopacity="1"
     inkscape:pageshadow="2"
     inkscape:window-width="1882"
     inkscape:window-height="1018"
     id="namedview10"
     showgrid="true"
     inkscape:zoom="6.2225397"
     inkscape:cx="64.610044"
     inkscape:cy="1463.7644"
     inkscape:window-x="14"
     inkscape:window-y="14"
     inkscape:window-maximized="0"
     inkscape:current-layer="svg8"
     showguides="false"
     inkscape:pagecheckerboard="false"
     borderlayer="true"
     scale-x="1"
     fit-margin-top="0"
     fit-margin-left="0"
     fit-margin-right="0"
     fit-margin-bottom="0"
     units="px">
    <inkscape:grid
       type="xygrid"
       id="grid819"
       units="px"
       spacingx="5"
       spacingy="5"
       dotted="true"
       empspacing="8"
       snapvisiblegridlinesonly="true"
       visible="true"
       enabled="true"
       color="#888888"
       opacity="0.53333333"
       empcolor="#404040"
       empopacity="0.53333333" />
  </sodipodi:namedview>
  <defs
     id="defs2">
    <marker
       inkscape:stockid="TeXArrow_1.0Start"
       style="overflow:visible"
       refY="0"
       refX="0"
       orient="auto"
       id="TeXArrow_1.0Start">
      <path
         id="path826"
         transform="matrix(0.4,0,0,0.4,3.5272,0)"
         style="fill:#000000;fill-rule:evenodd;stroke:#000000;stroke-width:1"
         d="M 0,0 5,-5 -12.5,0 5,5 Z"
         inkscape:connector-curvature="0" />
    </marker>
    <marker
       inkscape:stockid="TeXArrow_1.0End"
       style="overflow:visible"
       refY="0"
       refX="0"
       orient="auto"
       id="TeXArrow_1.0End">
      <path
         id="path829"
         transform="matrix(-0.4,0,0,-0.4,-3.5272,0)"
         style="fill:#000000;fill-rule:evenodd;stroke:#000000;stroke-width:1"
         d="M 0,0 5,-5 -12.5,0 5,5 Z"
         inkscape:connector-curvature="0" />
    </marker>
    <marker
       inkscape:stockid="TeXArrow_1.0"
       style="overflow:visible"
       refY="0"
       refX="0"
       orient="auto"
       id="TeXArrow_1.0">
      <path
         id="path832"
         style="fill:#000000;fill-rule:evenodd;stroke:#000000;stroke-width:1"
         d="m -4,3 c 1,-1 2,-2 4,-3 -2,-1 -3,-2 -4,-3 1,1 2,2 4,3 -2,1 -3,2 -4,3"
         inkscape:connector-curvature="0" />
    </marker>
  </defs>
  <metadata
     id="metadata5">
    <rdf:RDF>
      <cc:Work
         rdf:about="">
        <dc:format>image/svg+xml</dc:format>
        <dc:type
           rdf:resource="http://purl.org/dc/dcmitype/StillImage" />
        <dc:title></dc:title>
      </cc:Work>
    </rdf:RDF>
  </metadata>
  <g
     transform="translate(0,116.33331)"
     id="layer1">
    <text
       id="text819"
       y="105.10048"
       x="94.613411"
       style="font-style:normal;font-weight:normal;font-size:4.23333311px;line-height:125%;font-family:sans-serif;letter-spacing:0px;word-spacing:0px;fill:#000000;fill-opacity:1;stroke:none;stroke-width:0.26458332px;stroke-linecap:butt;stroke-linejoin:miter;stroke-opacity:1"
       xml:space="preserve"><tspan
         style="stroke-width:0.26458332px"
         y="108.84599"
         x="94.613411"
         id="tspan817" /></text>
    <text
       id="text823"
       y="99.755089"
       x="92.475258"
       style="font-style:normal;font-weight:normal;font-size:7.05555534px;line-height:125%;font-family:sans-serif;letter-spacing:0px;word-spacing:0px;fill:#000000;fill-opacity:1;stroke:none;stroke-width:0.26458332px;stroke-linecap:butt;stroke-linejoin:miter;stroke-opacity:1"
       xml:space="preserve"><tspan
         style="stroke-width:0.26458332px"
         y="105.9976"
         x="92.475258"
         id="tspan821" /></text>
  </g>
  <text
     xml:space="preserve"
     style="font-size:3.17499995px;line-height:1.25;letter-spacing:0px;word-spacing:0px;opacity:1;vector-effect:none;fill:#000000;fill-opacity:1;stroke:none;stroke-width:0.26458332px;stroke-linecap:butt;stroke-linejoin:miter;stroke-miterlimit:4;stroke-dasharray:none;stroke-dashoffset:0;stroke-opacity:1"
     x="105"
     y="138.3333"
     id="text4625"><tspan
       sodipodi:role="line"
       id="tspan4623"
       x="105"
       y="141.14243"
       style="stroke-width:0.26458332px" /></text>
  <g
     id="g1327">
    <g
       transform="rotate(-90,40,40)"
       id="g1316">
      <circle
         style="opacity:1;vector-effect:none;fill:none;fill-opacity:1;fill-rule:evenodd;stroke:#000000;stroke-width:1.99999988;stroke-linecap:round;stroke-linejoin:round;stroke-miterlimit:4;stroke-dasharray:none;stroke-dashoffset:0;stroke-opacity:1"
         id="path1256"
         cx="40"
         cy="40"
         r="15" />
      <path
         inkscape:connector-curvature="0"
         id="path1305"
         title="sin(x)"
         d="m 30,40 c 0.01336,-0.02798 0.02672,-0.05596 0.04008,-0.08394 0.01336,-0.02798 0.02672,-0.05596 0.04008,-0.08393 0.01336,-0.02797 0.02672,-0.05594 0.04008,-0.0839 0.01336,-0.02796 0.02672,-0.05592 0.04008,-0.08386 0.01336,-0.02795 0.02672,-0.05588 0.04008,-0.08381 0.01336,-0.02793 0.02672,-0.05584 0.04008,-0.08374 0.01336,-0.0279 0.02672,-0.05579 0.04008,-0.08366 0.01336,-0.02787 0.02672,-0.05573 0.04008,-0.08357 0.01336,-0.02784 0.02672,-0.05566 0.04008,-0.08346 0.01336,-0.0278 0.02672,-0.05558 0.04008,-0.08334 0.01336,-0.02776 0.02672,-0.0555 0.04008,-0.08321 0.01336,-0.02771 0.02672,-0.0554 0.04008,-0.08306 0.01336,-0.02766 0.02672,-0.0553 0.04008,-0.08291 0.01336,-0.02761 0.02672,-0.05519 0.04008,-0.08273 0.01336,-0.02755 0.02672,-0.05506 0.04008,-0.08255 0.01336,-0.02748 0.02672,-0.05494 0.04008,-0.08235 0.01336,-0.02741 0.02672,-0.05479 0.04008,-0.08214 0.01336,-0.02734 0.02672,-0.05465 0.04008,-0.08191 0.01336,-0.02727 0.02672,-0.05449 0.04008,-0.08168 0.01336,-0.02718 0.02672,-0.05433 0.04008,-0.08143 0.01336,-0.0271 0.02672,-0.05415 0.04008,-0.08116 0.01336,-0.02701 0.02672,-0.05397 0.04008,-0.08089 0.01336,-0.02691 0.02672,-0.05378 0.04008,-0.0806 0.01336,-0.02682 0.02672,-0.05358 0.04008,-0.08029 0.01336,-0.02671 0.02672,-0.05337 0.04008,-0.07998 0.01336,-0.02661 0.02672,-0.05316 0.04008,-0.07965 0.01336,-0.0265 0.02672,-0.05293 0.04008,-0.07931 0.01336,-0.02638 0.02672,-0.0527 0.04008,-0.07896 0.01336,-0.02626 0.02672,-0.05246 0.04008,-0.0786 0.01336,-0.02614 0.02672,-0.05221 0.04008,-0.07822 0.01336,-0.02601 0.02672,-0.05195 0.04008,-0.07783 0.01336,-0.02588 0.02672,-0.05169 0.04008,-0.07743 0.01336,-0.02574 0.02672,-0.05141 0.04008,-0.07701 0.01336,-0.0256 0.02672,-0.05113 0.04008,-0.07659 0.01336,-0.02546 0.02672,-0.05084 0.04008,-0.07615 0.01336,-0.02531 0.02672,-0.05054 0.04008,-0.0757 0.01336,-0.02516 0.02672,-0.05023 0.04008,-0.07523 0.01336,-0.025 0.02672,-0.04992 0.04008,-0.07476 0.01336,-0.02484 0.02672,-0.0496 0.04008,-0.07427 0.01336,-0.02467 0.02672,-0.04927 0.04008,-0.07377 0.01336,-0.02451 0.02672,-0.04893 0.04008,-0.07326 0.01336,-0.02433 0.02672,-0.04858 0.04008,-0.07274 0.01336,-0.02416 0.02672,-0.04823 0.04008,-0.07221 0.01336,-0.02398 0.02672,-0.04787 0.04008,-0.07166 0.01336,-0.0238 0.02672,-0.0475 0.04008,-0.07111 0.01336,-0.02361 0.02672,-0.04712 0.04008,-0.07054 0.01336,-0.02342 0.02672,-0.04674 0.04008,-0.06996 0.01336,-0.02322 0.02672,-0.04635 0.04008,-0.06937 0.01336,-0.02302 0.02672,-0.04595 0.04008,-0.06877 0.01336,-0.02282 0.02672,-0.04554 0.04008,-0.06816 0.01336,-0.02262 0.02672,-0.04513 0.04008,-0.06754 0.01336,-0.02241 0.02672,-0.04471 0.04008,-0.0669 0.01336,-0.02219 0.02672,-0.04428 0.04008,-0.06626 0.01336,-0.02198 0.02672,-0.04385 0.04008,-0.06561 0.01336,-0.02176 0.02672,-0.04341 0.04008,-0.06494 0.01336,-0.02154 0.02672,-0.04296 0.04008,-0.06427 0.01336,-0.02131 0.02672,-0.0425 0.04008,-0.06358 0.01336,-0.02108 0.02672,-0.04204 0.04008,-0.06289 0.01336,-0.02085 0.02672,-0.04157 0.04008,-0.06218 0.01336,-0.02061 0.02672,-0.0411 0.04008,-0.06147 0.01336,-0.02037 0.02672,-0.04062 0.04008,-0.06074 0.01336,-0.02013 0.02672,-0.04013 0.04008,-0.06001 0.01336,-0.01988 0.02672,-0.03963 0.04008,-0.05926 0.01336,-0.01963 0.02672,-0.03913 0.04008,-0.05851 0.01336,-0.01938 0.02672,-0.03863 0.04008,-0.05775 0.01336,-0.01912 0.02672,-0.03811 0.04008,-0.05698 0.01336,-0.01886 0.02672,-0.03759 0.04008,-0.05619 0.01336,-0.0186 0.02672,-0.03707 0.04008,-0.05541 0.01336,-0.01834 0.02672,-0.03654 0.04008,-0.05461 0.01336,-0.01807 0.02672,-0.036 0.04008,-0.0538 0.01336,-0.0178 0.02672,-0.03546 0.04008,-0.05298 0.01336,-0.01753 0.02672,-0.03491 0.04008,-0.05216 0.01336,-0.01725 0.02672,-0.03436 0.04008,-0.05133 0.01336,-0.01697 0.02672,-0.0338 0.04008,-0.05049 0.01336,-0.01669 0.02672,-0.03323 0.04008,-0.04964 0.01336,-0.0164 0.02672,-0.03267 0.04008,-0.04878 0.01336,-0.01612 0.02672,-0.03209 0.04008,-0.04792 0.01336,-0.01583 0.02672,-0.03151 0.04008,-0.04705 0.01336,-0.01554 0.02672,-0.03093 0.04008,-0.04617 0.01336,-0.01524 0.02672,-0.03034 0.04008,-0.04528 0.01336,-0.01495 0.02672,-0.02974 0.04008,-0.04439 0.01336,-0.01465 0.02672,-0.02914 0.04008,-0.04349 0.01336,-0.01434 0.02672,-0.02854 0.04008,-0.04258 0.01336,-0.01404 0.02672,-0.02793 0.04008,-0.04167 0.01336,-0.01374 0.02672,-0.02732 0.04008,-0.04075 0.01336,-0.01343 0.02672,-0.0267 0.04008,-0.03982 0.01336,-0.01312 0.02672,-0.02608 0.04008,-0.03888 0.01336,-0.01281 0.02672,-0.02545 0.04008,-0.03795 0.01336,-0.01249 0.02672,-0.02482 0.04008,-0.037 0.01336,-0.01218 0.02672,-0.02419 0.04008,-0.03605 0.01336,-0.01186 0.02672,-0.02355 0.04008,-0.03509 0.01336,-0.01154 0.02672,-0.02291 0.04008,-0.03413 0.01336,-0.01121 0.02672,-0.02227 0.04008,-0.03316 0.01336,-0.01089 0.02672,-0.02162 0.04008,-0.03218 0.01336,-0.01056 0.02672,-0.02097 0.04008,-0.0312 0.01336,-0.01024 0.02672,-0.02031 0.04008,-0.03022 0.01336,-0.0099 0.02672,-0.01965 0.04008,-0.02923 0.01336,-0.0096 0.02672,-0.01899 0.04008,-0.02824 0.01336,-0.0092 0.02672,-0.01833 0.04008,-0.02724 0.01336,-0.0089 0.02672,-0.01766 0.04008,-0.02624 0.01336,-0.0086 0.02672,-0.01699 0.04008,-0.02524 0.01336,-0.0082 0.02672,-0.01632 0.04008,-0.02422 0.01336,-0.0079 0.02672,-0.01564 0.04008,-0.02321 0.01336,-0.0076 0.02672,-0.01497 0.04008,-0.02219 0.01336,-0.0072 0.02672,-0.01429 0.04008,-0.02117 0.01336,-0.0069 0.02672,-0.0136 0.04008,-0.02015 0.01336,-0.0065 0.02672,-0.01292 0.04008,-0.01912 0.01336,-0.0062 0.02672,-0.01223 0.04008,-0.01809 0.01336,-0.0059 0.02672,-0.01154 0.04008,-0.01706 0.01336,-0.0055 0.02672,-0.01085 0.04008,-0.01602 0.01336,-0.0052 0.02672,-0.01016 0.04008,-0.01498 0.01336,-0.0048 0.02672,-0.0095 0.04008,-0.01394 0.01336,-0.0045 0.02672,-0.0088 0.04008,-0.0129 0.01336,-0.0041 0.02672,-0.0081 0.04008,-0.01185 0.01336,-0.0038 0.02672,-0.0074 0.04008,-0.0108 0.01336,-0.0034 0.02672,-0.0067 0.04008,-0.0098 0.01336,-0.0031 0.02672,-0.006 0.04008,-0.0087 0.01336,-0.0027 0.02672,-0.0053 0.04008,-0.0077 0.01336,-0.0024 0.02672,-0.0046 0.04008,-0.0066 0.01336,-0.002 0.02672,-0.0039 0.04008,-0.0055 0.01336,-0.0017 0.02672,-0.0032 0.04008,-0.0045 0.01336,-0.0013 0.02672,-0.0025 0.04008,-0.0034 0.01336,-9.69e-4 0.02672,-0.0018 0.04008,-0.0024 0.01336,-6.17e-4 0.02672,-0.0011 0.04008,-0.0013 0.01336,-2.65e-4 0.02672,-3.53e-4 0.04008,-2.65e-4 0.01336,8.8e-5 0.02672,3.53e-4 0.04008,7.93e-4 0.01336,4.4e-4 0.02672,0.0011 0.04008,0.0018 0.01336,7.92e-4 0.02672,0.0018 0.04008,0.0029 0.01336,0.0011 0.02672,0.0025 0.04008,0.004 0.01336,0.0015 0.02672,0.0032 0.04008,0.005 0.01336,0.0018 0.02672,0.0039 0.04008,0.0061 0.01336,0.0022 0.02672,0.0046 0.04008,0.0071 0.01336,0.0026 0.02672,0.0053 0.04008,0.0082 0.01336,0.0029 0.02672,0.006 0.04008,0.0092 0.01336,0.0033 0.02672,0.0067 0.04008,0.01028 0.01336,0.0036 0.02672,0.0074 0.04008,0.01133 0.01336,0.0039 0.02672,0.0081 0.04008,0.01237 0.01336,0.0043 0.02672,0.0088 0.04008,0.01342 0.01336,0.0046 0.02672,0.0095 0.04008,0.01446 0.01336,0.005 0.02672,0.01016 0.04008,0.0155 0.01336,0.0053 0.02672,0.01085 0.04008,0.01654 0.01336,0.0057 0.02672,0.01154 0.04008,0.01757 0.01336,0.006 0.02672,0.01223 0.04008,0.01861 0.01336,0.0064 0.02672,0.01292 0.04008,0.01963 0.01336,0.0067 0.02672,0.0136 0.04008,0.02066 0.01336,0.0071 0.02672,0.01429 0.04008,0.02168 0.01336,0.0074 0.02672,0.01496 0.04008,0.0227 0.01336,0.0077 0.02672,0.01564 0.04008,0.02372 0.01336,0.0081 0.02672,0.01632 0.04008,0.02473 0.01336,0.0084 0.02672,0.01699 0.04008,0.02574 0.01336,0.0087 0.02672,0.01766 0.04008,0.02674 0.01336,0.0091 0.02672,0.01833 0.04008,0.02774 0.01336,0.0094 0.02672,0.01899 0.04008,0.02874 0.01336,0.0097 0.02672,0.01966 0.04008,0.02973 0.01336,0.01007 0.02672,0.02031 0.04008,0.03072 0.01336,0.0104 0.02672,0.02097 0.04008,0.0317 0.01336,0.01073 0.02672,0.02162 0.04008,0.03267 0.01336,0.01105 0.02672,0.02227 0.04008,0.03364 0.01336,0.01138 0.02672,0.02291 0.04008,0.03461 0.01336,0.0117 0.02672,0.02355 0.04008,0.03557 0.01336,0.01202 0.02672,0.02419 0.04008,0.03652 0.01336,0.01233 0.02672,0.02482 0.04008,0.03747 0.01336,0.01265 0.02672,0.02545 0.04008,0.03842 0.01336,0.01296 0.02672,0.02608 0.04008,0.03935 0.01336,0.01327 0.02672,0.0267 0.04008,0.04028 0.01336,0.01358 0.02672,0.02732 0.04008,0.04121 0.01336,0.01389 0.02672,0.02793 0.04008,0.04212 0.01336,0.01419 0.02672,0.02854 0.04008,0.04303 0.01336,0.0145 0.02672,0.02914 0.04008,0.04394 0.01336,0.0148 0.02672,0.02974 0.04008,0.04484 0.01336,0.01509 0.02672,0.03034 0.04008,0.04573 0.01336,0.01539 0.02672,0.03093 0.04008,0.04661 0.01336,0.01568 0.02672,0.03151 0.04008,0.04748 0.01336,0.01597 0.02672,0.03209 0.04008,0.04835 0.01336,0.01626 0.02672,0.03267 0.04008,0.04921 0.01336,0.01655 0.02672,0.03324 0.04008,0.05007 0.01336,0.01683 0.02672,0.0338 0.04008,0.05091 0.01336,0.01711 0.02672,0.03436 0.04008,0.05175 0.01336,0.01739 0.02672,0.03491 0.04008,0.05257 0.01336,0.01766 0.02672,0.03546 0.04008,0.05339 0.01336,0.01793 0.02672,0.036 0.04008,0.0542 0.01336,0.0182 0.02672,0.03654 0.04008,0.05501 0.01336,0.01847 0.02672,0.03707 0.04008,0.0558 0.01336,0.01873 0.02672,0.03759 0.04008,0.05659 0.01336,0.01899 0.02672,0.03811 0.04008,0.05736 0.01336,0.01925 0.02672,0.03863 0.04008,0.05813 0.01336,0.0195 0.02672,0.03913 0.04008,0.05889 0.01336,0.01976 0.02672,0.03963 0.04008,0.05964 0.01336,0.02 0.02672,0.04013 0.04008,0.06038 0.01336,0.02025 0.02672,0.04062 0.04008,0.0611 0.01336,0.02049 0.02672,0.0411 0.04008,0.06183 0.01336,0.02073 0.02672,0.04157 0.04008,0.06253 0.01336,0.02096 0.02672,0.04204 0.04008,0.06323 0.01336,0.02119 0.02672,0.0425 0.04008,0.06392 0.01336,0.02142 0.02672,0.04296 0.04008,0.06461 0.01336,0.02165 0.02672,0.04341 0.04008,0.06527 0.01336,0.02187 0.02672,0.04385 0.04008,0.06593 0.01336,0.02209 0.02672,0.04428 0.04008,0.06658 0.01336,0.0223 0.02672,0.04471 0.04008,0.06722 0.01336,0.02251 0.02672,0.04513 0.04008,0.06785 0.01336,0.02272 0.02672,0.04554 0.04008,0.06847 0.01336,0.02292 0.02672,0.04595 0.04008,0.06907 0.01336,0.02312 0.02672,0.04635 0.04008,0.06967 0.01336,0.02332 0.02672,0.04674 0.04008,0.07025 0.01336,0.02351 0.02672,0.04712 0.04008,0.07082 0.01336,0.0237 0.02672,0.0475 0.04008,0.07139 0.01336,0.02389 0.02672,0.04787 0.04008,0.07194 0.01336,0.02407 0.02672,0.04823 0.04008,0.07248 0.01336,0.02425 0.02672,0.04858 0.04008,0.073 0.01336,0.02442 0.02672,0.04893 0.04008,0.07352 0.01336,0.02459 0.02672,0.04927 0.04008,0.07402 0.01336,0.02476 0.02672,0.0496 0.04008,0.07452 0.01336,0.02492 0.02672,0.04992 0.04008,0.075 0.01336,0.02508 0.02672,0.05023 0.04008,0.07547 0.01336,0.02523 0.02672,0.05054 0.04008,0.07592 0.01336,0.02538 0.02672,0.05084 0.04008,0.07637 0.01336,0.02553 0.02672,0.05113 0.04008,0.0768 0.01336,0.02567 0.02672,0.05141 0.04008,0.07722 0.01336,0.02581 0.02672,0.05169 0.04008,0.07763 0.01336,0.02594 0.02672,0.05195 0.04008,0.07803 0.01336,0.02607 0.02672,0.05221 0.04008,0.07841 0.01336,0.0262 0.02672,0.05246 0.04008,0.07878 0.01336,0.02632 0.02672,0.0527 0.04008,0.07914 0.01336,0.02644 0.02672,0.05293 0.04008,0.07948 0.01336,0.02655 0.02672,0.05316 0.04008,0.07982 0.01336,0.02666 0.02672,0.05338 0.04008,0.08014 0.01336,0.02676 0.02672,0.05358 0.04008,0.08045 0.01336,0.02687 0.02672,0.05378 0.04008,0.08074 0.01336,0.02696 0.02672,0.05397 0.04008,0.08103 0.01336,0.02705 0.02672,0.05415 0.04008,0.0813 0.01336,0.02714 0.02672,0.05433 0.04008,0.08155 0.01336,0.02723 0.02672,0.05449 0.04008,0.0818 0.01336,0.0273 0.02672,0.05465 0.04008,0.08203 0.01336,0.02738 0.02672,0.05479 0.04008,0.08224 0.01336,0.02745 0.02672,0.05493 0.04008,0.08245 0.01336,0.02752 0.02672,0.05506 0.04008,0.08264 0.01336,0.02758 0.02672,0.05519 0.04008,0.08282 0.01336,0.02764 0.02672,0.0553 0.04008,0.08299 0.01336,0.02769 0.02672,0.0554 0.04008,0.08314 0.01336,0.02774 0.02672,0.0555 0.04008,0.08328 0.01336,0.02778 0.02672,0.05558 0.04008,0.08341 0.01336,0.02782 0.02672,0.05566 0.04008,0.08352 0.01336,0.02786 0.02672,0.05573 0.04008,0.08362 0.01336,0.02789 0.02672,0.05579 0.04008,0.0837 0.01336,0.02791 0.02672,0.05584 0.04008,0.08378 0.01336,0.02794 0.02672,0.05588 0.04008,0.08384 0.01336,0.02795 0.02672,0.05592 0.04008,0.08388 0.01336,0.02797 0.02672,0.05594 0.04008,0.08392 0.01336,0.02798 0.02672,0.05596 0.04008,0.08394 0.01336,0.02798 0.02672,0.05596 0.04008,0.08394 0.01336,0.02798 0.02672,0.05596 0.04008,0.08394 0.01336,0.02798 0.02672,0.05595 0.04008,0.08392 0.01336,0.02797 0.02672,0.05593 0.04008,0.08388 0.01336,0.02795 0.02672,0.0559 0.04008,0.08384 0.01336,0.02794 0.02672,0.05586 0.04008,0.08378 0.01336,0.02792 0.02672,0.05582 0.04008,0.0837 0.01336,0.02789 0.02672,0.05576 0.04008,0.08362 0.01336,0.02786 0.02672,0.0557 0.04008,0.08352 0.01336,0.02782 0.02672,0.05562 0.04008,0.08341 0.01336,0.02778 0.02672,0.05554 0.04008,0.08328 0.01336,0.02774 0.02672,0.05545 0.04008,0.08314 0.01336,0.02769 0.02672,0.05535 0.04008,0.08299 0.01336,0.02763 0.02672,0.05524 0.04008,0.08282 0.01336,0.02758 0.02672,0.05513 0.04008,0.08264 0.01336,0.02752 0.02672,0.055 0.04008,0.08245 0.01336,0.02745 0.02672,0.05487 0.04008,0.08224 0.01336,0.02738 0.02672,0.05472 0.04008,0.08203 0.01336,0.0273 0.02672,0.05457 0.04008,0.0818 0.01336,0.02723 0.02672,0.05441 0.04008,0.08155 0.01336,0.02714 0.02672,0.05424 0.04008,0.0813 0.01336,0.02705 0.02672,0.05406 0.04008,0.08103 0.01336,0.02696 0.02672,0.05388 0.04008,0.08074 0.01336,0.02687 0.02672,0.05368 0.04008,0.08045 0.01336,0.02676 0.02672,0.05348 0.04008,0.08014 0.01336,0.02666 0.02672,0.05327 0.04008,0.07982 0.01336,0.02655 0.02672,0.05305 0.04008,0.07948 0.01336,0.02644 0.02672,0.05282 0.04008,0.07914 0.01336,0.02632 0.02672,0.05258 0.04008,0.07878 0.01336,0.0262 0.02672,0.05234 0.04008,0.07841 0.01336,0.02607 0.02672,0.05208 0.04008,0.07803 0.01336,0.02594 0.02672,0.05182 0.04008,0.07763 0.01336,0.02581 0.02672,0.05155 0.04008,0.07722 0.01336,0.02567 0.02672,0.05127 0.04008,0.0768 0.01336,0.02553 0.02672,0.05099 0.04008,0.07637 0.01336,0.02538 0.02672,0.05069 0.04008,0.07592 0.01336,0.02523 0.02672,0.05039 0.04008,0.07547 0.01336,0.02508 0.02672,0.05008 0.04008,0.075 0.01336,0.02492 0.02672,0.04976 0.04008,0.07452 0.01336,0.02476 0.02672,0.04943 0.04008,0.07402 0.01336,0.02459 0.02672,0.0491 0.04008,0.07352 0.01336,0.02442 0.02672,0.04876 0.04008,0.073 0.01336,0.02425 0.02672,0.04841 0.04008,0.07248 0.01336,0.02407 0.02672,0.04805 0.04008,0.07194 0.01336,0.02389 0.02672,0.04768 0.04008,0.07139 0.01336,0.0237 0.02672,0.04731 0.04008,0.07082 0.01336,0.02351 0.02672,0.04693 0.04008,0.07025 0.01336,0.02332 0.02672,0.04654 0.04008,0.06967 0.01336,0.02312 0.02672,0.04615 0.04008,0.06907 0.01336,0.02292 0.02672,0.04575 0.04008,0.06847 0.01336,0.02272 0.02672,0.04534 0.04008,0.06785 0.01336,0.02251 0.02672,0.04492 0.04008,0.06722 0.01336,0.0223 0.02672,0.0445 0.04008,0.06658 0.01336,0.02209 0.02672,0.04407 0.04008,0.06593 0.01336,0.02187 0.02672,0.04363 0.04008,0.06527 0.01336,0.02165 0.02672,0.04318 0.04008,0.06461 0.01336,0.02142 0.02672,0.04273 0.04008,0.06392 0.01336,0.02119 0.02672,0.04227 0.04008,0.06323 0.01336,0.02096 0.02672,0.04181 0.04008,0.06253 0.01336,0.02073 0.02672,0.04134 0.04008,0.06183 0.01336,0.02049 0.02672,0.04086 0.04008,0.0611 0.01336,0.02025 0.02672,0.04037 0.04008,0.06038 0.01336,0.02 0.02672,0.03988 0.04008,0.05964 0.01336,0.01975 0.02672,0.03938 0.04008,0.05889 0.01336,0.0195 0.02672,0.03888 0.04008,0.05813 0.01336,0.01925 0.02672,0.03837 0.04008,0.05736 0.01336,0.01899 0.02672,0.03785 0.04008,0.05659 0.01336,0.01873 0.02672,0.03733 0.04008,0.0558 0.01336,0.01847 0.02672,0.03681 0.04008,0.05501 0.01336,0.0182 0.02672,0.03627 0.04008,0.0542 0.01336,0.01793 0.02672,0.03573 0.04008,0.05339 0.01336,0.01766 0.02672,0.03519 0.04008,0.05257 0.01336,0.01739 0.02672,0.03464 0.04008,0.05175 0.01336,0.01711 0.02672,0.03408 0.04008,0.05091 0.01336,0.01683 0.02672,0.03352 0.04008,0.05007 0.01336,0.01655 0.02672,0.03295 0.04008,0.04921 0.01336,0.01626 0.02672,0.03238 0.04008,0.04835 0.01336,0.01597 0.02672,0.0318 0.04008,0.04748 0.01336,0.01568 0.02672,0.03122 0.04008,0.04661 0.01336,0.01539 0.02672,0.03063 0.04008,0.04573 0.01336,0.01509 0.02672,0.03004 0.04008,0.04484 0.01336,0.0148 0.02672,0.02944 0.04008,0.04394 0.01336,0.0145 0.02672,0.02884 0.04008,0.04303 0.01336,0.01419 0.02672,0.02824 0.04008,0.04212 0.01336,0.01389 0.02672,0.02763 0.04008,0.04121 0.01336,0.01358 0.02672,0.02701 0.04008,0.04028 0.01336,0.01327 0.02672,0.02639 0.04008,0.03935 0.01336,0.01296 0.02672,0.02577 0.04008,0.03842 0.01336,0.01265 0.02672,0.02514 0.04008,0.03747 0.01336,0.01233 0.02672,0.02451 0.04008,0.03652 0.01336,0.01202 0.02672,0.02387 0.04008,0.03557 0.01336,0.0117 0.02672,0.02323 0.04008,0.03461 0.01336,0.01138 0.02672,0.02259 0.04008,0.03364 0.01336,0.01105 0.02672,0.02194 0.04008,0.03267 0.01336,0.01073 0.02672,0.02129 0.04008,0.0317 0.01336,0.0104 0.02672,0.02064 0.04008,0.03072 0.01336,0.01007 0.02672,0.01998 0.04008,0.02973 0.01336,0.0097 0.02672,0.01932 0.04008,0.02874 0.01336,0.0094 0.02672,0.01866 0.04008,0.02774 0.01336,0.0091 0.02672,0.01799 0.04008,0.02674 0.01336,0.0087 0.02672,0.01733 0.04008,0.02574 0.01336,0.0084 0.02672,0.01666 0.04008,0.02473 0.01336,0.0081 0.02672,0.01598 0.04008,0.02372 0.01336,0.0077 0.02672,0.01531 0.04008,0.0227 0.01336,0.0074 0.02672,0.01463 0.04008,0.02168 0.01336,0.0071 0.02672,0.01394 0.04008,0.02066 0.01336,0.0067 0.02672,0.01326 0.04008,0.01963 0.01336,0.0064 0.02672,0.01258 0.04008,0.01861 0.01336,0.006 0.02672,0.01189 0.04008,0.01757 0.01336,0.0057 0.02672,0.0112 0.04008,0.01654 0.01336,0.0053 0.02672,0.01051 0.04008,0.0155 0.01336,0.005 0.02672,0.0098 0.04008,0.01446 0.01336,0.0046 0.02672,0.0091 0.04008,0.01342 0.01336,0.0043 0.02672,0.0084 0.04008,0.01237 0.01336,0.004 0.02672,0.0077 0.04008,0.01133 0.01336,0.0036 0.02672,0.007 0.04008,0.01028 0.01336,0.0033 0.02672,0.0063 0.04008,0.0092 0.01336,0.0029 0.02672,0.0056 0.04008,0.0082 0.01336,0.0026 0.02672,0.0049 0.04008,0.0071 0.01336,0.0022 0.02672,0.0042 0.04008,0.0061 0.01336,0.0018 0.02672,0.0035 0.04008,0.005 0.01336,0.0015 0.02672,0.0028 0.04008,0.004 0.01336,0.0011 0.02672,0.0021 0.04008,0.0029 0.01336,7.93e-4 0.02672,0.0014 0.04008,0.0018 0.01336,4.4e-4 0.02672,7.05e-4 0.04008,7.93e-4 0.01336,8.8e-5 0.02672,0 0.04008,-2.65e-4 0.01336,-2.64e-4 0.02672,-7.04e-4 0.04008,-0.0013 0.01336,-6.16e-4 0.02672,-0.0014 0.04008,-0.0024 0.01336,-9.68e-4 0.02672,-0.0021 0.04008,-0.0034 0.01336,-0.0013 0.02672,-0.0028 0.04008,-0.0045 0.01336,-0.0017 0.02672,-0.0035 0.04008,-0.0055 0.01336,-0.002 0.02672,-0.0042 0.04008,-0.0066 0.01336,-0.0024 0.02672,-0.0049 0.04008,-0.0077 0.01336,-0.0027 0.02672,-0.0056 0.04008,-0.0087 0.01336,-0.0031 0.02672,-0.0063 0.04008,-0.0098 0.01336,-0.0034 0.02672,-0.007 0.04008,-0.0108 0.01336,-0.0038 0.02672,-0.0077 0.04008,-0.01185 0.01336,-0.0041 0.02672,-0.0084 0.04008,-0.0129 0.01336,-0.0045 0.02672,-0.0091 0.04008,-0.01394 0.01336,-0.0048 0.02672,-0.0098 0.04008,-0.01498 0.01336,-0.0052 0.02672,-0.01051 0.04008,-0.01602 0.01336,-0.0055 0.02672,-0.0112 0.04008,-0.01706 0.01336,-0.0059 0.02672,-0.01189 0.04008,-0.01809 0.01336,-0.0062 0.02672,-0.01258 0.04008,-0.01912 0.01336,-0.0065 0.02672,-0.01326 0.04008,-0.02015 0.01336,-0.0069 0.02672,-0.01394 0.04008,-0.02117 0.01336,-0.0072 0.02672,-0.01463 0.04008,-0.02219 0.01336,-0.0076 0.02672,-0.0153 0.04008,-0.02321 0.01336,-0.0079 0.02672,-0.01598 0.04008,-0.02422 0.01336,-0.0082 0.02672,-0.01666 0.04008,-0.02524 0.01336,-0.0086 0.02672,-0.01733 0.04008,-0.02624 0.01336,-0.0089 0.02672,-0.01799 0.04008,-0.02724 0.01336,-0.0092 0.02672,-0.01866 0.04008,-0.02824 0.01336,-0.0096 0.02672,-0.01933 0.04008,-0.02923 0.01336,-0.0099 0.02672,-0.01998 0.04008,-0.03022 0.01336,-0.01024 0.02672,-0.02064 0.04008,-0.0312 0.01336,-0.01057 0.02672,-0.02129 0.04008,-0.03218 0.01336,-0.01089 0.02672,-0.02194 0.04008,-0.03316 0.01336,-0.01121 0.02672,-0.02259 0.04008,-0.03413 0.01336,-0.01154 0.02672,-0.02323 0.04008,-0.03509 0.01336,-0.01186 0.02672,-0.02387 0.04008,-0.03605 0.01336,-0.01217 0.02672,-0.02451 0.04008,-0.037 0.01336,-0.01249 0.02672,-0.02514 0.04008,-0.03795 0.01336,-0.01281 0.02672,-0.02577 0.04008,-0.03888 0.01336,-0.01312 0.02672,-0.02639 0.04008,-0.03982 0.01336,-0.01343 0.02672,-0.02701 0.04008,-0.04075 0.01336,-0.01374 0.02672,-0.02763 0.04008,-0.04167 0.01336,-0.01404 0.02672,-0.02824 0.04008,-0.04258 0.01336,-0.01434 0.02672,-0.02884 0.04008,-0.04349 0.01336,-0.01465 0.02672,-0.02944 0.04008,-0.04439 0.01336,-0.01494 0.02672,-0.03004 0.04008,-0.04528 0.01336,-0.01524 0.02672,-0.03063 0.04008,-0.04617 0.01336,-0.01554 0.02672,-0.03122 0.04008,-0.04705 0.01336,-0.01583 0.02672,-0.0318 0.04008,-0.04792 0.01336,-0.01612 0.02672,-0.03238 0.04008,-0.04878 0.01336,-0.0164 0.02672,-0.03295 0.04008,-0.04964 0.01336,-0.01669 0.02672,-0.03352 0.04008,-0.05049 0.01336,-0.01697 0.02672,-0.03408 0.04008,-0.05133 0.01336,-0.01725 0.02672,-0.03464 0.04008,-0.05216 0.01336,-0.01752 0.02672,-0.03519 0.04008,-0.05298 0.01336,-0.0178 0.02672,-0.03573 0.04008,-0.0538 0.01336,-0.01807 0.02672,-0.03627 0.04008,-0.05461 0.01336,-0.01834 0.02672,-0.03681 0.04008,-0.05541 0.01336,-0.0186 0.02672,-0.03733 0.04008,-0.05619 0.01336,-0.01886 0.02672,-0.03785 0.04008,-0.05698 0.01336,-0.01912 0.02672,-0.03837 0.04008,-0.05775 0.01336,-0.01938 0.02672,-0.03888 0.04008,-0.05851 0.01336,-0.01963 0.02672,-0.03938 0.04008,-0.05926 0.01336,-0.01988 0.02672,-0.03988 0.04008,-0.06001 0.01336,-0.02013 0.02672,-0.04037 0.04008,-0.06074 0.01336,-0.02037 0.02672,-0.04086 0.04008,-0.06147 0.01336,-0.02061 0.02672,-0.04134 0.04008,-0.06218 0.01336,-0.02085 0.02672,-0.04181 0.04008,-0.06289 0.01336,-0.02108 0.02672,-0.04227 0.04008,-0.06358 0.01336,-0.02131 0.02672,-0.04273 0.04008,-0.06427 0.01336,-0.02154 0.02672,-0.04318 0.04008,-0.06494 0.01336,-0.02176 0.02672,-0.04363 0.04008,-0.06561 0.01336,-0.02198 0.02672,-0.04407 0.04008,-0.06626 0.01336,-0.0222 0.02672,-0.0445 0.04008,-0.0669 0.01336,-0.02241 0.02672,-0.04492 0.04008,-0.06754 0.01336,-0.02262 0.02672,-0.04534 0.04008,-0.06816 0.01336,-0.02282 0.02672,-0.04575 0.04008,-0.06877 0.01336,-0.02302 0.02672,-0.04615 0.04008,-0.06937 0.01336,-0.02322 0.02672,-0.04654 0.04008,-0.06996 0.01336,-0.02342 0.02672,-0.04693 0.04008,-0.07054 0.01336,-0.02361 0.02672,-0.04731 0.04008,-0.07111 0.01336,-0.02379 0.02672,-0.04768 0.04008,-0.07166 0.01336,-0.02398 0.02672,-0.04805 0.04008,-0.07221 0.01336,-0.02416 0.02672,-0.04841 0.04008,-0.07274 0.01336,-0.02434 0.02672,-0.04876 0.04008,-0.07326 0.01336,-0.02451 0.02672,-0.0491 0.04008,-0.07377 0.01336,-0.02468 0.02672,-0.04943 0.04008,-0.07427 0.01336,-0.02484 0.02672,-0.04976 0.04008,-0.07476 0.01336,-0.025 0.02672,-0.05008 0.04008,-0.07523 0.01336,-0.02515 0.02672,-0.05039 0.04008,-0.0757 0.01336,-0.02531 0.02672,-0.05069 0.04008,-0.07615 0.01336,-0.02546 0.02672,-0.05099 0.04008,-0.07659 0.01336,-0.0256 0.02672,-0.05127 0.04008,-0.07701 0.01336,-0.02574 0.02672,-0.05155 0.04008,-0.07743 0.01336,-0.02588 0.02672,-0.05182 0.04008,-0.07783 0.01336,-0.02601 0.02672,-0.05208 0.04008,-0.07822 0.01336,-0.02614 0.02672,-0.05234 0.04008,-0.0786 0.01336,-0.02626 0.02672,-0.05258 0.04008,-0.07896 0.01336,-0.02638 0.02672,-0.05282 0.04008,-0.07931 0.01336,-0.02649 0.02672,-0.05305 0.04008,-0.07965 0.01336,-0.02661 0.02672,-0.05327 0.04008,-0.07998 0.01336,-0.02671 0.02672,-0.05348 0.04008,-0.08029 0.01336,-0.02682 0.02672,-0.05368 0.04008,-0.0806 0.01336,-0.02692 0.02672,-0.05388 0.04008,-0.08089 0.01336,-0.02701 0.02672,-0.05406 0.04008,-0.08116 0.01336,-0.0271 0.02672,-0.05424 0.04008,-0.08143 0.01336,-0.02718 0.02672,-0.05441 0.04008,-0.08168 0.01336,-0.02726 0.02672,-0.05457 0.04008,-0.08191 0.01336,-0.02734 0.02672,-0.05472 0.04008,-0.08214 0.01336,-0.02741 0.02672,-0.05487 0.04008,-0.08235 0.01336,-0.02748 0.02672,-0.055 0.04008,-0.08255 0.01336,-0.02755 0.02672,-0.05513 0.04008,-0.08273 0.01336,-0.02761 0.02672,-0.05524 0.04008,-0.08291 0.01336,-0.02766 0.02672,-0.05535 0.04008,-0.08306 0.01336,-0.02771 0.02672,-0.05545 0.04008,-0.08321 0.01336,-0.02776 0.02672,-0.05554 0.04008,-0.08334 0.01336,-0.0278 0.02672,-0.05562 0.04008,-0.08346 0.01336,-0.02784 0.02672,-0.0557 0.04008,-0.08357 0.01336,-0.02787 0.02672,-0.05576 0.04008,-0.08366 0.01336,-0.0279 0.02672,-0.05582 0.04008,-0.08374 0.01336,-0.02793 0.02672,-0.05586 0.04008,-0.08381 0.01336,-0.02795 0.02672,-0.0559 0.04008,-0.08386 0.01336,-0.02796 0.02672,-0.05593 0.04008,-0.0839 0.01336,-0.02797 0.02672,-0.05595 0.04008,-0.08393 C 49.97328,40.055962 49.98664,40.027981 50,40"
         style="opacity:1;vector-effect:none;fill:none;fill-opacity:1;fill-rule:evenodd;stroke:#000000;stroke-width:1.99999988;stroke-linecap:round;stroke-linejoin:round;stroke-miterlimit:4;stroke-dasharray:none;stroke-dashoffset:0;stroke-opacity:1" />
    </g>
    <path
       inkscape:connector-curvature="0"
       id="path1318"
       d="M 40,0 V 25"
       style="opacity:1;vector-effect:none;fill:none;fill-opacity:1;fill-rule:evenodd;stroke:#000000;stroke-width:1.99999988;stroke-linecap:round;stroke-linejoin:round;stroke-miterlimit:4;stroke-dasharray:none;stroke-dashoffset:0;stroke-opacity:1" />
    <path
       inkscape:connector-curvature="0"
       id="path1320"
       d="M 40,55 V 80"
       style="opacity:1;vector-effect:none;fill:none;fill-opacity:1;fill-rule:evenodd;stroke:#000000;stroke-width:1.99999988;stroke-linecap:round;stroke-linejoin:round;stroke-miterlimit:4;stroke-dasharray:none;stroke-dashoffset:0;stroke-opacity:1" />
  </g>
</svg>
